EESchema Schematic File Version 2
LIBS:power
LIBS:device
LIBS:switches
LIBS:relays
LIBS:motors
LIBS:transistors
LIBS:conn
LIBS:linear
LIBS:regul
LIBS:74xx
LIBS:cmos4000
LIBS:adc-dac
LIBS:memory
LIBS:xilinx
LIBS:microcontrollers
LIBS:dsp
LIBS:microchip
LIBS:analog_switches
LIBS:motorola
LIBS:texas
LIBS:intel
LIBS:audio
LIBS:interface
LIBS:digital-audio
LIBS:philips
LIBS:display
LIBS:cypress
LIBS:siliconi
LIBS:opto
LIBS:atmel
LIBS:contrib
LIBS:valves
LIBS:pocketbeagle-to-nanopiair-adapter-cache
EELAYER 25 0
EELAYER END
$Descr A4 11693 8268
encoding utf-8
Sheet 1 1
Title ""
Date ""
Rev ""
Comp ""
Comment1 ""
Comment2 ""
Comment3 ""
Comment4 ""
$EndDescr
$Comp
L Conn_02x18_Odd_Even J1
U 1 1 5A3E6A67
P 2000 4300
F 0 "J1" H 2050 5200 50  0000 C CNN
F 1 "PB_P1" H 2050 3300 50  0000 C CNN
F 2 "Socket_Strips:Socket_Strip_Straight_2x18_Pitch2.54mm" H 2000 4300 50  0001 C CNN
F 3 "" H 2000 4300 50  0001 C CNN
	1    2000 4300
	1    0    0    -1  
$EndComp
$Comp
L Conn_02x18_Odd_Even J2
U 1 1 5A3E6BE3
P 4500 4300
F 0 "J2" H 4550 5200 50  0000 C CNN
F 1 "PB_P2" H 4550 3300 50  0000 C CNN
F 2 "Socket_Strips:Socket_Strip_Straight_2x18_Pitch2.54mm" H 4500 4300 50  0001 C CNN
F 3 "" H 4500 4300 50  0001 C CNN
	1    4500 4300
	1    0    0    -1  
$EndComp
$Comp
L Conn_01x12 J3
U 1 1 5A3E6C6B
P 7250 4350
F 0 "J3" H 7250 4950 50  0000 C CNN
F 1 "PI_CON2" H 7250 3650 50  0000 C CNN
F 2 "Pin_Headers:Pin_Header_Straight_1x12_Pitch2.54mm" H 7250 4350 50  0001 C CNN
F 3 "" H 7250 4350 50  0001 C CNN
	1    7250 4350
	1    0    0    -1  
$EndComp
$Comp
L Conn_01x04 J4
U 1 1 5A3E6CFE
P 7600 4850
F 0 "J4" H 7600 5050 50  0000 C CNN
F 1 "PI_DBG_UART" H 7600 4550 50  0000 C CNN
F 2 "Pin_Headers:Pin_Header_Straight_1x04_Pitch2.54mm" H 7600 4850 50  0001 C CNN
F 3 "" H 7600 4850 50  0001 C CNN
	1    7600 4850
	-1   0    0    1   
$EndComp
$Comp
L Conn_02x12_Odd_Even J5
U 1 1 5A3E6D39
P 9750 4300
F 0 "J5" H 9800 4900 50  0000 C CNN
F 1 "PI_CON1" H 9800 3600 50  0000 C CNN
F 2 "Pin_Headers:Pin_Header_Straight_2x12_Pitch2.54mm" H 9750 4300 50  0001 C CNN
F 3 "" H 9750 4300 50  0001 C CNN
	1    9750 4300
	1    0    0    -1  
$EndComp
Text Label 8000 4650 0    60   ~ 0
PI_UART0_RX
Text Label 8000 4750 0    60   ~ 0
PI_UART0_TX
Text Label 8000 4850 0    60   ~ 0
PI_5V
Text Label 8000 4950 0    60   ~ 0
GND
Text Label 6850 4950 2    60   ~ 0
GND
Text Label 6850 4850 2    60   ~ 0
PI_DIN
Text Label 6850 4750 2    60   ~ 0
PI_DOUT
Text Label 6850 4650 2    60   ~ 0
PI_BCK
Text Label 6850 4550 2    60   ~ 0
PI_LRCK
Text Label 6850 4450 2    60   ~ 0
PI_PA17
Text Label 6850 4350 2    60   ~ 0
PI_PL11
Text Label 6850 4250 2    60   ~ 0
PI_USB2_DM
Text Label 6850 4150 2    60   ~ 0
PI_USB2_DP
Text Label 6850 4050 2    60   ~ 0
PI_USB1_DM
Text Label 6850 3950 2    60   ~ 0
PI_USB1_DP
Text Label 6850 3850 2    60   ~ 0
PI_5V
Text Label 9350 3800 2    60   ~ 0
PI_3V3
Text Label 9350 3900 2    60   ~ 0
PI_SDA
Text Label 9350 4000 2    60   ~ 0
PI_SCL
Text Label 9350 4100 2    60   ~ 0
PI_PG11
Text Label 9350 4200 2    60   ~ 0
GND
Text Label 9350 4300 2    60   ~ 0
PI_UART2_TX
Text Label 9350 4400 2    60   ~ 0
PI_UART2_RTS
Text Label 9350 4500 2    60   ~ 0
PI_UART2_CTS
Text Label 9350 4600 2    60   ~ 0
PI_3V3
Text Label 9350 4700 2    60   ~ 0
PI_SPI0_MOSI
Text Label 9350 4800 2    60   ~ 0
PI_SPI0_MISO
Text Label 9350 4900 2    60   ~ 0
PI_SPI0_CLK
Text Label 10250 3800 0    60   ~ 0
PI_5V
Text Label 10250 3900 0    60   ~ 0
PI_5V
Text Label 10250 4000 0    60   ~ 0
GND
Text Label 10250 4100 0    60   ~ 0
PI_UART1_TX
Text Label 10250 4200 0    60   ~ 0
PI_UART1_RX
Text Label 10250 4300 0    60   ~ 0
PI_PA6
Text Label 10250 4400 0    60   ~ 0
GND
Text Label 10250 4500 0    60   ~ 0
PI_UART1_RTS
Text Label 10250 4600 0    60   ~ 0
PI_UART1_CTS
Text Label 10250 4700 0    60   ~ 0
PI_GND
Text Label 10250 4800 0    60   ~ 0
PI_UART2_RX
Text Label 10250 4900 0    60   ~ 0
PI_SPI0_CS
Wire Wire Line
	7050 3850 6850 3850
Wire Wire Line
	6850 3950 7050 3950
Wire Wire Line
	7050 4050 6850 4050
Wire Wire Line
	7050 4150 6850 4150
Wire Wire Line
	7050 4250 6850 4250
Wire Wire Line
	6850 4350 7050 4350
Wire Wire Line
	7050 4450 6850 4450
Wire Wire Line
	6850 4550 7050 4550
Wire Wire Line
	7050 4650 6850 4650
Wire Wire Line
	7050 4750 6850 4750
Wire Wire Line
	7050 4850 6850 4850
Wire Wire Line
	7050 4950 6850 4950
Wire Wire Line
	7800 4950 8000 4950
Wire Wire Line
	7800 4850 8000 4850
Wire Wire Line
	7800 4750 8000 4750
Wire Wire Line
	7800 4650 8000 4650
Wire Wire Line
	9550 3800 9350 3800
Wire Wire Line
	9350 3900 9550 3900
Wire Wire Line
	9550 4000 9350 4000
Wire Wire Line
	9550 4100 9350 4100
Wire Wire Line
	9350 4200 9550 4200
Wire Wire Line
	9550 4300 9350 4300
Wire Wire Line
	9550 4400 9350 4400
Wire Wire Line
	9550 4500 9350 4500
Wire Wire Line
	9550 4600 9350 4600
Wire Wire Line
	9350 4700 9550 4700
Wire Wire Line
	9550 4800 9350 4800
Wire Wire Line
	9350 4900 9550 4900
Wire Wire Line
	10050 3800 10250 3800
Wire Wire Line
	10250 3900 10050 3900
Wire Wire Line
	10050 4000 10250 4000
Wire Wire Line
	10050 4100 10250 4100
Wire Wire Line
	10050 4200 10250 4200
Wire Wire Line
	10050 4300 10250 4300
Wire Wire Line
	10050 4400 10250 4400
Wire Wire Line
	10050 4500 10250 4500
Wire Wire Line
	10050 4600 10250 4600
Wire Wire Line
	10050 4700 10250 4700
Wire Wire Line
	10050 4800 10250 4800
Wire Wire Line
	10050 4900 10250 4900
Wire Wire Line
	1800 3500 1600 3500
Wire Wire Line
	1600 3600 1800 3600
Wire Wire Line
	1800 3700 1600 3700
Wire Wire Line
	1600 3800 1800 3800
Wire Wire Line
	1800 3900 1600 3900
Wire Wire Line
	1600 4000 1800 4000
Wire Wire Line
	1600 4100 1800 4100
Wire Wire Line
	1800 4200 1600 4200
Wire Wire Line
	1600 4300 1800 4300
Wire Wire Line
	1800 4400 1600 4400
Wire Wire Line
	1600 4500 1800 4500
Wire Wire Line
	1800 4600 1600 4600
Wire Wire Line
	1600 4700 1800 4700
Wire Wire Line
	1800 4800 1600 4800
Wire Wire Line
	1600 4900 1800 4900
Wire Wire Line
	1600 5000 1800 5000
Wire Wire Line
	1800 5100 1600 5100
Wire Wire Line
	1600 5200 1800 5200
Wire Wire Line
	2300 3500 2500 3500
Wire Wire Line
	2300 3600 2500 3600
Wire Wire Line
	2500 3700 2300 3700
Wire Wire Line
	2300 3800 2500 3800
Wire Wire Line
	2300 3900 2500 3900
Wire Wire Line
	2300 4000 2500 4000
Wire Wire Line
	2300 4100 2500 4100
Wire Wire Line
	2300 4200 2500 4200
Wire Wire Line
	2300 4300 2500 4300
Wire Wire Line
	2300 4400 2500 4400
Wire Wire Line
	2300 4500 2500 4500
Wire Wire Line
	2300 4600 2500 4600
Wire Wire Line
	2300 4700 2500 4700
Wire Wire Line
	2300 4800 2500 4800
Wire Wire Line
	2300 4900 2500 4900
Wire Wire Line
	2300 5000 2500 5000
Wire Wire Line
	2300 5100 2500 5100
Wire Wire Line
	2300 5200 2500 5200
Wire Wire Line
	4300 3500 4100 3500
Wire Wire Line
	4100 3600 4300 3600
Wire Wire Line
	4300 3700 4100 3700
Wire Wire Line
	4100 3800 4300 3800
Wire Wire Line
	4300 3900 4100 3900
Wire Wire Line
	4100 4000 4300 4000
Wire Wire Line
	4300 4100 4100 4100
Wire Wire Line
	4100 4200 4300 4200
Wire Wire Line
	4300 4300 4100 4300
Wire Wire Line
	4300 4400 4100 4400
Wire Wire Line
	4100 4500 4300 4500
Wire Wire Line
	4300 4600 4100 4600
Wire Wire Line
	4100 4700 4300 4700
Wire Wire Line
	4300 4800 4100 4800
Wire Wire Line
	4100 4900 4300 4900
Wire Wire Line
	4300 5000 4100 5000
Wire Wire Line
	4100 5100 4300 5100
Wire Wire Line
	4300 5200 4100 5200
Wire Wire Line
	4800 5200 5000 5200
Wire Wire Line
	4800 5100 5000 5100
Wire Wire Line
	4800 5000 5000 5000
Wire Wire Line
	4800 4900 5000 4900
Wire Wire Line
	4800 4800 5000 4800
Wire Wire Line
	4800 4700 5000 4700
Wire Wire Line
	4800 4600 5000 4600
Wire Wire Line
	4800 4500 5000 4500
Wire Wire Line
	4800 4400 5000 4400
Wire Wire Line
	4800 4300 5000 4300
Wire Wire Line
	4800 4200 5000 4200
Wire Wire Line
	4800 4100 5000 4100
Wire Wire Line
	4800 4000 5000 4000
Wire Wire Line
	4800 3900 5000 3900
Wire Wire Line
	4800 3800 5000 3800
Wire Wire Line
	4800 3700 5000 3700
Wire Wire Line
	4800 3600 5000 3600
Wire Wire Line
	4800 3500 5000 3500
Text Label 1600 3700 2    60   ~ 0
PB_USB1_VBUS
Text Label 2500 5000 0    60   ~ 0
PB_UART0_RX
Text Label 2500 4900 0    60   ~ 0
PB_UART0_TX
Text Label 1600 3800 2    60   ~ 0
PB_USB1_VIN
Text Label 1600 3900 2    60   ~ 0
PB_USB1_DM
Text Label 1600 4000 2    60   ~ 0
PB_USB1_DP
Text Label 1600 4100 2    60   ~ 0
PB_USB1_ID
Text Label 1600 4200 2    60   ~ 0
GND
Text Label 2500 4200 0    60   ~ 0
GND
Text Label 2500 4100 0    60   ~ 0
PB_3V3
Text Label 2500 4000 0    60   ~ 0
PB_PRU_RX
Text Label 2500 3900 0    60   ~ 0
PB_UART2_TX
Text Label 2500 3800 0    60   ~ 0
PB_UART2_RX
Text Label 2500 3700 0    60   ~ 0
PB_PRU_TX
Text Label 2500 4500 0    60   ~ 0
GND
Text Label 4100 4200 2    60   ~ 0
GND
Text Label 4100 4500 2    60   ~ 0
GND
Wire Wire Line
	1500 6400 1400 6400
Wire Wire Line
	1500 6600 1400 6600
Wire Wire Line
	1800 6400 1900 6400
Wire Wire Line
	1800 6600 1900 6600
Text Label 1900 6400 0    60   ~ 0
PI_UART0_RX
Text Label 1900 6600 0    60   ~ 0
PI_UART0_TX
Text Label 1400 6400 2    60   ~ 0
PB_UART0_RX
Text Label 1400 6600 2    60   ~ 0
PB_UART0_TX
$Comp
L R R1
U 1 1 5A3EA328
P 1650 6400
F 0 "R1" V 1730 6400 50  0000 C CNN
F 1 "R" V 1650 6400 50  0000 C CNN
F 2 "Resistors_SMD:R_0402_NoSilk" V 1580 6400 50  0001 C CNN
F 3 "" H 1650 6400 50  0001 C CNN
	1    1650 6400
	0    -1   -1   0   
$EndComp
$Comp
L R R2
U 1 1 5A3EA39F
P 1650 6600
F 0 "R2" V 1730 6600 50  0000 C CNN
F 1 "R" V 1650 6600 50  0000 C CNN
F 2 "Resistors_SMD:R_0402_NoSilk" V 1580 6600 50  0001 C CNN
F 3 "" H 1650 6600 50  0001 C CNN
	1    1650 6600
	0    -1   -1   0   
$EndComp
$Comp
L R R3
U 1 1 5A3EA248
P 1650 6800
F 0 "R3" V 1730 6800 50  0000 C CNN
F 1 "0" V 1650 6800 50  0000 C CNN
F 2 "Resistors_SMD:R_0402_NoSilk" V 1580 6800 50  0001 C CNN
F 3 "" H 1650 6800 50  0001 C CNN
	1    1650 6800
	0    -1   -1   0   
$EndComp
$Comp
L R R4
U 1 1 5A3EA28A
P 1650 7000
F 0 "R4" V 1730 7000 50  0000 C CNN
F 1 "0" V 1650 7000 50  0000 C CNN
F 2 "Resistors_SMD:R_0402_NoSilk" V 1580 7000 50  0001 C CNN
F 3 "" H 1650 7000 50  0001 C CNN
	1    1650 7000
	0    -1   -1   0   
$EndComp
$Comp
L R R5
U 1 1 5A3EA2C2
P 1650 7200
F 0 "R5" V 1730 7200 50  0000 C CNN
F 1 "0" V 1650 7200 50  0000 C CNN
F 2 "Resistors_SMD:R_0402_NoSilk" V 1580 7200 50  0001 C CNN
F 3 "" H 1650 7200 50  0001 C CNN
	1    1650 7200
	0    -1   -1   0   
$EndComp
$Comp
L R R6
U 1 1 5A3EA2FE
P 1650 7400
F 0 "R6" V 1730 7400 50  0000 C CNN
F 1 "0" V 1650 7400 50  0000 C CNN
F 2 "Resistors_SMD:R_0402_NoSilk" V 1580 7400 50  0001 C CNN
F 3 "" H 1650 7400 50  0001 C CNN
	1    1650 7400
	0    -1   -1   0   
$EndComp
Wire Wire Line
	1500 6800 1400 6800
Wire Wire Line
	1500 7000 1400 7000
Wire Wire Line
	1500 7200 1400 7200
Wire Wire Line
	1500 7400 1400 7400
Wire Wire Line
	1800 6800 1900 6800
Wire Wire Line
	1800 7000 1900 7000
Wire Wire Line
	1800 7200 1900 7200
Wire Wire Line
	1800 7400 1900 7400
Text Label 1400 6800 2    60   ~ 0
PB_UART2_RX
Text Label 1400 7000 2    60   ~ 0
PB_UART2_TX
Text Label 1900 6800 0    60   ~ 0
PI_UART1_RX
Text Label 1900 7000 0    60   ~ 0
PI_UART1_TX
Text Label 4100 3700 2    60   ~ 0
PB_UART4_RX
Text Label 4100 3800 2    60   ~ 0
PB_UART4_TX
Text Label 1400 7200 2    60   ~ 0
PB_UART4_RX
Text Label 1400 7400 2    60   ~ 0
PB_UART4_TX
Text Label 1900 7200 0    60   ~ 0
PI_UART2_RX
Text Label 1900 7400 0    60   ~ 0
PI_UART2_TX
Text Label 4100 5000 2    60   ~ 0
PB_SPI1_CS
Text Label 4100 4900 2    60   ~ 0
PB_SPI1_CLK
Text Label 4100 4800 2    60   ~ 0
PB_SPI1_MISO
Text Label 4100 4700 2    60   ~ 0
PB_SPI1_MOSI
$Comp
L R R7
U 1 1 5A3EB3D5
P 3450 6400
F 0 "R7" V 3530 6400 50  0000 C CNN
F 1 "0" V 3450 6400 50  0000 C CNN
F 2 "Resistors_SMD:R_0402_NoSilk" V 3380 6400 50  0001 C CNN
F 3 "" H 3450 6400 50  0001 C CNN
	1    3450 6400
	0    -1   -1   0   
$EndComp
$Comp
L R R8
U 1 1 5A3EB4F3
P 3450 6600
F 0 "R8" V 3530 6600 50  0000 C CNN
F 1 "0" V 3450 6600 50  0000 C CNN
F 2 "Resistors_SMD:R_0402_NoSilk" V 3380 6600 50  0001 C CNN
F 3 "" H 3450 6600 50  0001 C CNN
	1    3450 6600
	0    -1   -1   0   
$EndComp
$Comp
L R R9
U 1 1 5A3EB532
P 3450 6800
F 0 "R9" V 3530 6800 50  0000 C CNN
F 1 "0" V 3450 6800 50  0000 C CNN
F 2 "Resistors_SMD:R_0402_NoSilk" V 3380 6800 50  0001 C CNN
F 3 "" H 3450 6800 50  0001 C CNN
	1    3450 6800
	0    -1   -1   0   
$EndComp
$Comp
L R R10
U 1 1 5A3EB570
P 3450 7000
F 0 "R10" V 3530 7000 50  0000 C CNN
F 1 "0" V 3450 7000 50  0000 C CNN
F 2 "Resistors_SMD:R_0402_NoSilk" V 3380 7000 50  0001 C CNN
F 3 "" H 3450 7000 50  0001 C CNN
	1    3450 7000
	0    -1   -1   0   
$EndComp
Wire Wire Line
	3300 6400 3200 6400
Wire Wire Line
	3200 6600 3300 6600
Wire Wire Line
	3300 6800 3200 6800
Wire Wire Line
	3300 7000 3200 7000
Wire Wire Line
	3600 6400 3700 6400
Wire Wire Line
	3600 6600 3700 6600
Wire Wire Line
	3600 6800 3700 6800
Wire Wire Line
	3600 7000 3700 7000
Text Label 3200 6400 2    60   ~ 0
PB_SPI1_MOSI
Text Label 3200 6600 2    60   ~ 0
PB_SPI1_MISO
Text Label 3200 6800 2    60   ~ 0
PB_SPI1_CLK
Text Label 3200 7000 2    60   ~ 0
PB_SPI1_CS
Text Label 3700 6400 0    60   ~ 0
PI_SPI0_MOSI
Text Label 3700 6600 0    60   ~ 0
PI_SPI0_MISO
Text Label 3700 6800 0    60   ~ 0
PI_SPI0_CLK
Text Label 3700 7000 0    60   ~ 0
PI_SPI0_CS
$Comp
L R R11
U 1 1 5A3EC1F8
P 5350 6400
F 0 "R11" V 5430 6400 50  0000 C CNN
F 1 "0" V 5350 6400 50  0000 C CNN
F 2 "Resistors_SMD:R_0402_NoSilk" V 5280 6400 50  0001 C CNN
F 3 "" H 5350 6400 50  0001 C CNN
	1    5350 6400
	0    -1   -1   0   
$EndComp
$Comp
L R R12
U 1 1 5A3EC256
P 5350 6600
F 0 "R12" V 5430 6600 50  0000 C CNN
F 1 "0" V 5350 6600 50  0000 C CNN
F 2 "Resistors_SMD:R_0402_NoSilk" V 5280 6600 50  0001 C CNN
F 3 "" H 5350 6600 50  0001 C CNN
	1    5350 6600
	0    -1   -1   0   
$EndComp
Wire Wire Line
	5200 6400 5100 6400
Wire Wire Line
	5200 6600 5100 6600
Wire Wire Line
	5500 6400 5600 6400
Wire Wire Line
	5500 6600 5600 6600
Text Label 4100 3900 2    60   ~ 0
PB_I2C1_SCL
Text Label 4100 4000 2    60   ~ 0
PB_I2C1_SDA
Text Label 5100 6400 2    60   ~ 0
PB_I2C1_SCL
Text Label 5100 6600 2    60   ~ 0
PB_I2C1_SDA
Text Label 5600 6400 0    60   ~ 0
PI_SCL
Text Label 5600 6600 0    60   ~ 0
PI_SDA
$Comp
L R R13
U 1 1 5A3EC8E3
P 5350 7000
F 0 "R13" V 5430 7000 50  0000 C CNN
F 1 "0" V 5350 7000 50  0000 C CNN
F 2 "Resistors_SMD:R_0402_NoSilk" V 5280 7000 50  0001 C CNN
F 3 "" H 5350 7000 50  0001 C CNN
	1    5350 7000
	0    -1   -1   0   
$EndComp
$Comp
L R R14
U 1 1 5A3EC9AB
P 5350 7200
F 0 "R14" V 5430 7200 50  0000 C CNN
F 1 "0" V 5350 7200 50  0000 C CNN
F 2 "Resistors_SMD:R_0402_NoSilk" V 5280 7200 50  0001 C CNN
F 3 "" H 5350 7200 50  0001 C CNN
	1    5350 7200
	0    -1   -1   0   
$EndComp
Wire Wire Line
	5200 7000 5100 7000
Wire Wire Line
	5200 7200 5100 7200
Wire Wire Line
	5500 7000 5600 7000
Wire Wire Line
	5500 7200 5600 7200
Text Label 2500 4800 0    60   ~ 0
PB_CAN0_RX
Text Label 2500 4700 0    60   ~ 0
PB_CAN0_TX
Text Label 5100 7000 2    60   ~ 0
PB_CAN0_RX
Text Label 5100 7200 2    60   ~ 0
PB_CAN0_TX
Text Label 5600 7000 0    60   ~ 0
PI_BCK
Text Label 5600 7200 0    60   ~ 0
PI_LRCK
$EndSCHEMATC
